{
  "weapons":
  [
    {
      "parts": 1,
      "bulletType": 0,
      "bulletSpeed": 1.7,
      "bulletSpeedInherit": 0.5882352941176471,
      "distribution": 0.30517578125,
      "recoil": 0,
      "ammo": 1,
      "delay": 0,
      "loadingTime": 420,
      "leaveShells": 0,
      "leaveShellDelay": 0,
      "fireCone": 0,
      "laserSight": false,
      "laserBeam": false,
      "launchSound": 3,
      "playReloadSound": false,
      "name": "SMALL DIRTY",
      "id": 0,
      "reloadSound": -1
    }
  ],
  "wObjects":
  [
    {
      // wid0 used in SMALL DIRTY
      "detectDistance": 2,
      "blowAway": 0,
      "gravity": 0,
      "exploSound": -1,
      "addSpeed": 150,
      "distribution": 0,
      "multSpeed": 1,
      "createOnExp": -1,
      "dirtEffect": -1,
      "wormExplode": false,
      "explGround": false,
      "wormCollide": false,
      "collideWithObjects": false,
      "affectByExplosions": false,
      "bounce": -1,
      "bounceFriction": 0.8,
      "timeToExplo": 100,
      "timeToExploV": 0,
      "hitDamage": 0,
      "bloodOnHit": 0,
      "startFrame": 1,
      "numFrames": 0,
      "loopAnim": true,
      "shotType": 2,
      "repeat": 1,
      "colorBullets": 0,
      "splinterAmount": 50,
      "splinterColour": 19,
      "splinterType": 0,
      "splinterScatter": 0.666,
      "objTrailType": -1,
      "objTrailDelay": 0,
      "partTrailType": 0,
      "partTrailObj": -1,
      "partTrailDelay": 1,
      "speed": 0,
      "id": 0,
      "name": "wid 0",
      "teamImmunity": 0
    }
  ],
  "nObjects":
  [
    {
      // nid0 splinterType for wid0 partTrailObj for wid0
      "detectDistance": 3,
      "gravity": 0,
      "speed": 4,
      "speedV": 0,
      "distribution": 0,
      "blowAway": 0,
      "bounce": 0,
      "hitDamage": 0,
      "wormExplode": false,
      "explGround": true,
      "wormDestroy": false,
      "bloodOnHit": 0,
      "startFrame": -1,
      "numFrames": 0,
      "drawOnMap": false,
      "colorBullets": 0,
      "createOnExp": -1,
      "affectByExplosions": false,
      "dirtEffect": 0,
      "splinterAmount": 0,
      "splinterColour": 0,
      "splinterType": -1,
      "bloodTrail": false,
      "bloodTrailDelay": 0,
      "leaveObj": 0,
      "leaveObjDelay": 1,
      "timeToExplo": 1,
      "timeToExploV": 0,
      "id": 0,
      "name": "nid 0",
      "teamImmunity": 0
    }
  ],
  "sObjects":
  [
    {
      // sid0
      "startSound": -1,
      "numSounds": 0,
      "animDelay": 1,
      "startFrame": 19,
      "numFrames": 0,
      "detectRange": 0,
      "damage": 0,
      "blowAway": 0,
      "shadow": false,
      "shake": 0,
      "flash": 0,
      "dirtEffect": 0,
      "id": 0,
      "name": "sid 0"
    }
  ],
  "constants": {},
  "textures":
  [
    {
      "nDrawBack": false,
      "mFrame": 17,
      "sFrame": 18,
      "rFrame": 2,
      "id": 0,
      "name": "tid 0"
    }
  ],
  "colorAnim": [],
  "textSpritesStartIdx": "",
  "crossHairSprite": "",
  "name": "MERGED MOD",
  "author": "",
  "version": ""
}