{
  "weapons":
  [
    {
      "parts": 1,
      "bulletType": 0,
      "bulletSpeed": 1.7,
      "bulletSpeedInherit": 0.5882352941176471,
      "distribution": 0.30517578125,
      "recoil": 0,
      "ammo": 1,
      "delay": 0,
      "loadingTime": 420,
      "leaveShells": 0,
      "leaveShellDelay": 0,
      "fireCone": 0,
      "laserSight": false,
      "laserBeam": false,
      "launchSound": 3,
      "playReloadSound": false,
      "name": "BIG GIBBER",
      "id": 0,
      "reloadSound": -1
    }
  ],
  "wObjects":
  [
    {
      // wid0 used in BIG GIBBER
      "detectDistance": 2,
      "blowAway": 0,
      "gravity": 0,
      "exploSound": -1,
      "addSpeed": 150,
      "distribution": 0,
      "multSpeed": 1,
      "createOnExp": -1,
      "dirtEffect": 0,
      "wormExplode": false,
      "explGround": false,
      "wormCollide": false,
      "collideWithObjects": false,
      "affectByExplosions": false,
      "bounce": -1,
      "bounceFriction": 0.8,
      "timeToExplo": 100,
      "timeToExploV": 0,
      "hitDamage": 0,
      "bloodOnHit": 0,
      "startFrame": 3,
      "numFrames": 0,
      "loopAnim": false,
      "shotType": 2,
      "repeat": 1,
      "colorBullets": 0,
      "splinterAmount": 5000,
      "splinterColour": 12,
      "splinterType": 0,
      "splinterScatter": 0.666,
      "objTrailType": -1,
      "objTrailDelay": 0,
      "partTrailType": 0,
      "partTrailObj": -1,
      "partTrailDelay": 0,
      "speed": 0,
      "id": 0,
      "name": "wid 0",
      "teamImmunity": 0
    }
  ],
  "nObjects":
  [
    {
      // nid0 splinterType for wid0
      "detectDistance": 0,
      "gravity": 0.0152587890625,
      "speed": 6.9,
      "speedV": 0.4,
      "distribution": 0.1220703125,
      "blowAway": 0,
      "bounce": 0.1,
      "hitDamage": 0,
      "wormExplode": false,
      "explGround": true,
      "wormDestroy": true,
      "bloodOnHit": 0,
      "startFrame": 19,
      "numFrames": 3,
      "drawOnMap": true,
      "colorBullets": 0,
      "createOnExp": -1,
      "affectByExplosions": false,
      "dirtEffect": -1,
      "splinterAmount": 0,
      "splinterColour": 0,
      "splinterType": -1,
      "bloodTrail": true,
      "bloodTrailDelay": 10,
      "leaveObj": -1,
      "leaveObjDelay": 0,
      "timeToExplo": 0,
      "timeToExploV": 0,
      "id": 0,
      "name": "nid 0",
      "teamImmunity": 0
    }
  ],
  "sObjects": [],
  "constants": {},
  "textures":
  [
    {
      "nDrawBack": true,
      "mFrame": 1,
      "sFrame": 2,
      "rFrame": 2,
      "id": 0,
      "name": "tid 0"
    }
  ],
  "colorAnim": [],
  "textSpritesStartIdx": "",
  "crossHairSprite": "",
  "name": "MERGED MOD",
  "author": "",
  "version": ""
}
